<?xml version="1.0" encoding="UTF-8" standalone="no"?>
<!-- Created with Inkscape (http://www.inkscape.org/) -->

<svg
   xmlns:dc="http://purl.org/dc/elements/1.1/"
   xmlns:cc="http://creativecommons.org/ns#"
   xmlns:rdf="http://www.w3.org/1999/02/22-rdf-syntax-ns#"
   xmlns:svg="http://www.w3.org/2000/svg"
   xmlns="http://www.w3.org/2000/svg"
   xmlns:xlink="http://www.w3.org/1999/xlink"
   xmlns:sodipodi="http://sodipodi.sourceforge.net/DTD/sodipodi-0.dtd"
   xmlns:inkscape="http://www.inkscape.org/namespaces/inkscape"
   width="48"
   height="48"
   id="svg2"
   version="1.1"
   inkscape:version="0.48.3.1 r9886"
   sodipodi:docname="equalx.svg"
   enable-background="new"
   inkscape:export-filename="/home/mihai/workspace/graphics/equalx/equalx-app-icon-v02.png"
   inkscape:export-xdpi="1500"
   inkscape:export-ydpi="1500">
  <defs
     id="defs4">
    <linearGradient
       id="linearGradient4026">
      <stop
         style="stop-color:#edece9;stop-opacity:1;"
         offset="0"
         id="stop4028" />
      <stop
         id="stop4034"
         offset="0.82310665"
         style="stop-color:#e1e1e1;stop-opacity:1;" />
      <stop
         style="stop-color:#ffffff;stop-opacity:1;"
         offset="1"
         id="stop4030" />
    </linearGradient>
    <linearGradient
       id="linearGradient3808">
      <stop
         style="stop-color:#cb73f9;stop-opacity:1;"
         offset="0"
         id="stop3810" />
      <stop
         style="stop-color:#ce00dc;stop-opacity:1;"
         offset="0.5"
         id="stop3812" />
      <stop
         id="stop3818"
         offset="0.5"
         style="stop-color:#d550d7;stop-opacity:1;" />
      <stop
         id="stop3814"
         offset="0.92546582"
         style="stop-color:#dda0d2;stop-opacity:1;" />
      <stop
         style="stop-color:#faf5fe;stop-opacity:1;"
         offset="1"
         id="stop3816" />
    </linearGradient>
    <linearGradient
       id="linearGradient3797">
      <stop
         id="stop3799"
         offset="0"
         style="stop-color:#cb73f9;stop-opacity:1;" />
      <stop
         id="stop3801"
         offset="0.5"
         style="stop-color:#ce00dc;stop-opacity:1;" />
      <stop
         style="stop-color:#dda0d2;stop-opacity:1;"
         offset="0.92546582"
         id="stop3803" />
      <stop
         id="stop3806"
         offset="1"
         style="stop-color:#faf5fe;stop-opacity:1;" />
    </linearGradient>
    <linearGradient
       id="linearGradient4312">
      <stop
         style="stop-color:#745795;stop-opacity:1;"
         offset="0"
         id="stop4314" />
      <stop
         style="stop-color:#171717;stop-opacity:1;"
         offset="0.28267205"
         id="stop4316" />
      <stop
         id="stop4318"
         offset="1"
         style="stop-color:#d6d6d6;stop-opacity:1;" />
    </linearGradient>
    <linearGradient
       id="linearGradient4304">
      <stop
         style="stop-color:#745795;stop-opacity:1;"
         offset="0"
         id="stop4306" />
      <stop
         style="stop-color:#171717;stop-opacity:1;"
         offset="0.26198411"
         id="stop4308" />
      <stop
         id="stop4310"
         offset="1"
         style="stop-color:#d6d6d6;stop-opacity:1;" />
    </linearGradient>
    <linearGradient
       id="linearGradient3966">
      <stop
         id="stop3968"
         offset="0"
         style="stop-color:#ff8ae0;stop-opacity:1;" />
      <stop
         style="stop-color:#5f0f68;stop-opacity:0.83018869;"
         offset="1"
         id="stop3970" />
    </linearGradient>
    <linearGradient
       id="linearGradient3960">
      <stop
         id="stop3962"
         offset="0"
         style="stop-color:#f6451e;stop-opacity:0.9245283;" />
      <stop
         id="stop3964"
         offset="1"
         style="stop-color:#000000;stop-opacity:0;" />
    </linearGradient>
    <linearGradient
       id="linearGradient3922">
      <stop
         id="stop4290"
         offset="0"
         style="stop-color:#745795;stop-opacity:1;" />
      <stop
         id="stop4288"
         offset="0.50310558"
         style="stop-color:#171717;stop-opacity:1;" />
      <stop
         style="stop-color:#d6d6d6;stop-opacity:1;"
         offset="1"
         id="stop3926" />
    </linearGradient>
    <linearGradient
       id="linearGradient3871">
      <stop
         id="stop3873"
         offset="0"
         style="stop-color:#f9f9f9;stop-opacity:1;" />
      <stop
         style="stop-color:#dadada;stop-opacity:1;"
         offset="0.18941945"
         id="stop3875" />
      <stop
         id="stop3877"
         offset="1"
         style="stop-color:#363636;stop-opacity:1;" />
    </linearGradient>
    <linearGradient
       id="linearGradient3845">
      <stop
         style="stop-color:#a386fa;stop-opacity:1;"
         offset="0"
         id="stop4096" />
      <stop
         style="stop-color:#671aff;stop-opacity:1;"
         offset="0.5"
         id="stop4082" />
      <stop
         id="stop4094"
         offset="0.92546582"
         style="stop-color:#b980fd;stop-opacity:1;" />
      <stop
         style="stop-color:#faf5fe;stop-opacity:1;"
         offset="1"
         id="stop3849" />
    </linearGradient>
    <linearGradient
       id="linearGradient3770">
      <stop
         style="stop-color:#ffffff;stop-opacity:1"
         offset="0"
         id="stop3772" />
      <stop
         id="stop3805"
         offset="0.49068323"
         style="stop-color:#e078eb;stop-opacity:0.83018869;" />
      <stop
         style="stop-color:#f8fbdf;stop-opacity:0;"
         offset="1"
         id="stop3774" />
    </linearGradient>
    <linearGradient
       inkscape:collect="always"
       xlink:href="#linearGradient3808"
       id="linearGradient4080"
       x1="30.15753"
       y1="34.988956"
       x2="30.15753"
       y2="12.600747"
       gradientUnits="userSpaceOnUse" />
    <filter
       inkscape:collect="always"
       id="filter4387">
      <feGaussianBlur
         inkscape:collect="always"
         stdDeviation="0.32185761"
         id="feGaussianBlur4389" />
    </filter>
    <linearGradient
       inkscape:collect="always"
       xlink:href="#linearGradient3808"
       id="linearGradient3046"
       gradientUnits="userSpaceOnUse"
       x1="30.15753"
       y1="34.988956"
       x2="30.15753"
       y2="12.600747"
       gradientTransform="matrix(1.1894108,0,0,1.1894108,-2.9197394,-4.4822765)" />
    <linearGradient
       inkscape:collect="always"
       xlink:href="#linearGradient4304"
       id="linearGradient3049"
       gradientUnits="userSpaceOnUse"
       gradientTransform="matrix(0.84772958,0,0,0.63390781,0.20357867,9.3225173)"
       spreadMethod="repeat"
       x1="14.968519"
       y1="20.935802"
       x2="14.968519"
       y2="12.841349" />
    <linearGradient
       inkscape:collect="always"
       xlink:href="#linearGradient4312"
       id="linearGradient3052"
       gradientUnits="userSpaceOnUse"
       gradientTransform="matrix(0.84772958,0,0,-0.63390781,0.20357867,39.751443)"
       spreadMethod="repeat"
       x1="9.6604681"
       y1="12.736545"
       x2="9.6604681"
       y2="20.909586" />
    <linearGradient
       inkscape:collect="always"
       xlink:href="#linearGradient4312"
       id="linearGradient3144"
       gradientUnits="userSpaceOnUse"
       gradientTransform="matrix(0.84772958,0,0,-0.63390781,0.20357867,39.751443)"
       spreadMethod="repeat"
       x1="9.6604681"
       y1="12.736545"
       x2="9.6604681"
       y2="20.909586" />
    <linearGradient
       inkscape:collect="always"
       xlink:href="#linearGradient4304"
       id="linearGradient3146"
       gradientUnits="userSpaceOnUse"
       gradientTransform="matrix(0.84772958,0,0,0.63390781,0.20357867,9.3225173)"
       spreadMethod="repeat"
       x1="14.968519"
       y1="20.935802"
       x2="14.968519"
       y2="12.841349" />
    <linearGradient
       inkscape:collect="always"
       xlink:href="#linearGradient4026"
       id="linearGradient4085"
       x1="13.518392"
       y1="47.242657"
       x2="13.518392"
       y2="-0.30489197"
       gradientUnits="userSpaceOnUse"
       gradientTransform="translate(0,4.4194174)" />
    <filter
       inkscape:collect="always"
       id="filter4105">
      <feGaussianBlur
         inkscape:collect="always"
         stdDeviation="0.54638502"
         id="feGaussianBlur4107" />
    </filter>
  </defs>
  <sodipodi:namedview
     id="base"
     pagecolor="#ffffff"
     bordercolor="#666666"
     borderopacity="1.0"
     inkscape:pageopacity="0"
     inkscape:pageshadow="2"
     inkscape:zoom="7.9195959"
     inkscape:cx="32.472263"
     inkscape:cy="27.464682"
     inkscape:document-units="px"
     inkscape:current-layer="layer1"
     showgrid="false"
     inkscape:window-width="1006"
     inkscape:window-height="704"
     inkscape:window-x="622"
     inkscape:window-y="89"
     inkscape:window-maximized="0"
     borderlayer="true" />
  <metadata
     id="metadata7">
    <rdf:RDF>
      <cc:Work
         rdf:about="">
        <dc:format>image/svg+xml</dc:format>
        <dc:type
           rdf:resource="http://purl.org/dc/dcmitype/StillImage" />
        <dc:title></dc:title>
      </cc:Work>
    </rdf:RDF>
  </metadata>
  <g
     inkscape:groupmode="layer"
     id="layer2"
     inkscape:label="Layer"
     style="display:inline" />
  <g
     inkscape:label="bg"
     inkscape:groupmode="layer"
     id="layer1"
     transform="translate(0,-1004.3622)"
     style="display:inline">
    <path
       inkscape:connector-curvature="0"
       id="use4005"
       d="m 1.7649965,2025.0309 44.3273355,0"
       style="fill:none;stroke:#61c7f5;stroke-width:1px;stroke-linecap:butt;stroke-linejoin:miter;stroke-opacity:1;display:inline" />
    <path
       inkscape:connector-curvature="0"
       id="use3999"
       d="m 1.7649965,2050.1585 44.3273355,0"
       style="fill:none;stroke:#61c7f5;stroke-width:1px;stroke-linecap:butt;stroke-linejoin:miter;stroke-opacity:1;display:inline" />
  </g>
  <g
     inkscape:groupmode="layer"
     id="layer3"
     inkscape:label="Text"
     style="display:inline"
     sodipodi:insensitive="true">
    <g
       id="g3136"
       transform="translate(0,-0.536981)">
      <path
         id="path4284"
         d="M 5.0250405,31.669119 C 3.7617942,30.117299 2.8908107,28.368594 2.5348349,26.489843 l 19.4939951,0 -3.784506,5.179276 z"
         style="fill:url(#linearGradient3144);fill-opacity:1;stroke:#2e2e2e;stroke-width:0.5;stroke-miterlimit:4;stroke-opacity:0.99657533;stroke-dasharray:none;display:inline"
         inkscape:connector-curvature="0" />
      <path
         style="fill:url(#linearGradient3146);fill-opacity:1;stroke:#434343;stroke-width:0.5;stroke-miterlimit:4;stroke-opacity:0.99657533;stroke-dasharray:none;display:inline"
         d="m 5.0250405,17.404843 c -1.2632463,1.551818 -2.1342298,3.300523 -2.4902056,5.179275 l 19.4939951,0 -3.784506,-5.179275 z"
         id="path4100"
         inkscape:connector-curvature="0" />
    </g>
    <text
       xml:space="preserve"
       style="font-size:48.25131226px;font-style:normal;font-weight:bold;line-height:125%;letter-spacing:0px;word-spacing:0px;fill:url(#linearGradient3046);fill-opacity:1;stroke:#771a9c;stroke-width:0.69999999;stroke-miterlimit:4;stroke-opacity:0.99657533;stroke-dasharray:none;font-family:Sans;-inkscape-font-specification:Sans Bold"
       x="17.166258"
       y="36.858036"
       id="text4023"
       sodipodi:linespacing="125%"
       transform="scale(0.98601331,1.0141851)"><tspan
         sodipodi:role="line"
         id="tspan4025"
         x="17.166258"
         y="36.858036"
         style="fill:url(#linearGradient3046);fill-opacity:1;stroke:#771a9c;stroke-width:0.69999999;stroke-miterlimit:4;stroke-opacity:0.99657533;stroke-dasharray:none">x</tspan></text>
  </g>
</svg>
